{
  "goToQueryParam": "goto",
  "customerRedirectGoToQueryParam": "customerRedirectGoTo",
  "longLivedToken": false,
  "forgotPassword": true,
  "resetPassword": true,
  "selfActivate": true,
  "enableFederation": true,
  "devicePrint": true,
  "enableGeolocation": true,
  "customer": "cloudentity",
  "policy": "FULLY_AUTHENTICATED",
  "validatePolicyOnEveryAuthenticationFailure": true,
  "redirectIdleTime": 10,
  "baseHref": "/login/",
  "noOrganizationInSubdomain": false,
  "homePageUrl": "https://cloudentity.com",
  "title": "Sign In - Cloudentity",
  "issueSessionAfterActivation": true,
  "logoutAfterMFASetup": true,
  "crossDomainCookie": {
    "enabled": false,
    "domains": [
      "cloudentity.com",
      "orchis.io"
    ]
  },
  "duoAuthn": {
    "url": "PUT_YOUR_DUO_AUTHN_URL_HERE"
  },
  "defaultHeaders": {
    "X-CSRF-TOKEN": "."
  },
  "enableMultiTenantRegister": false,
  "appendCountryCodeToMobile": true,
  "defaultMobileCountryCode": "+1"
}
