{
  "views": {
    "register-step-4": {
      "fields": {
        "registerPassword": {
          "type": "api"
        }
      }
    },
    "reset-password-view-1": {
      "fields": {
        "resetPassword": {
          "type": "api"
        }
      }
    },
    "change-password-view": {
      "fields": {
        "newPassword": {
          "type": "api"
        }
      }
    },
    "self-activate-set-password-view": {
      "fields": {
        "password": {
          "type": "api"
        }
      }
    },
    "self-verify-set-password-view": {
      "fields": {
        "password": {
          "type": "api"
        }
      }
    }
  }
}
