{
  "scanPeriod": 15000,
  "stores": [
    {
      "type": "file",
      "format": "json",
      "config": {
        "path": "/opt/cloudentity/internal-api-gateway/config/config.json"
      }
    },
    {
      "type": "file",
      "format": "json",
      "config": {
        "path": "/opt/cloudentity/internal-api-gateway/config/jwt-config.json"
      }
    },
    {
      "type": "file",
      "format": "json",
      "config": {
        "path": "/opt/cloudentity/internal-api-gateway/config/consul-sd-provider.json"
      }
    },
    {
      "type": "file",
      "format": "json",
      "config": {
        "path": "/opt/cloudentity/internal-api-gateway/config/fixed-sd-provider.json"
      }
    },
    {
      "type": "vault",
      "format": "json",
      "config": {
        "host": "active.vault.service.consul",
        "port": 8200,
        "ssl": true,
        "auth-backend": "approle",
        "approle": {
          "role-id": "6ac50b66-ebf2-a956-8a6b-bbb54048e60c",
          "secret-id": ""
        },
        "path": "secret/data/apigwint"
      }
    },
    {
      "type": "consul-folder",
      "format": "json",
      "config": {
        "host": "127.0.0.1",
        "port": 8500,
        "ssl": false,
        "dc": "non-production",
        "aclToken": "5d48b11c-2b0f-6a49-aa32-a115b8079c62",
        "register": true,
        "path": "config/apigwint"
      }
    }
  ]
}
