{
	"mappings": [
		{
			"name": "emails",
			"array": true
		},
		{
			"name": "firstName",
			"array": false
		},
		{
			"name": "lastName",
			"array": false
		},
		{
			"name": "mobiles",
			"array": true
		},
		{
			"name": "remoteIdentifiers",
			"array": true
		},
		{
			"name": "uid",
			"array": false
		},
		{
			"name": "defaultEmail",
			"array": false
		},
		{
			"name": "identifierEmails",
			"array": true
		}
	],
	"sp-mappings": [
		{
			"name": "Session.authenticationIdentifier",
			"array": false
		},
		{
			"name": "Session.customer",
			"array": false
		},
		{
			"name": "Session.customerAlias",
			"array": false
		},
		{
			"name": "Session.defaultCustomer",
			"array": false
		},
		{
			"name": "Session.emails",
			"array": true
		},
		{
			"name": "Session.firstName",
			"array": false
		},
		{
			"name": "Session.lastName",
			"array": false
		},
		{
			"name": "Session.mobiles",
			"array": true
		},
		{
			"name": "Session.uid",
			"array": false
		},
		{
			"name": "Session.uuid",
			"array": false
		},
		{
			"name": "User.address",
			"array": false
		},
		{
			"name": "User.city",
			"array": false
		},
		{
			"name": "User.country",
			"array": false
		},
		{
			"name": "User.dob",
			"array": false
		},
		{
			"name": "User.defaultEmail",
			"array": false
		},
		{
			"name": "User.gender",
			"array": false
		},
		{
			"name": "User.locale",
			"array": false
		},
		{
			"name": "User.locality",
			"array": false
		},
		{
			"name": "User.postalCode",
			"array": false
		},
		{
			"name": "User.remoteIdentifiers",
			"array": true
		},
		{
			"name": "User.verifiedEmails",
			"array": true
		},
		{
			"name": "User.verifiedMobiles",
			"array": true
		}
	]
}