[
  {
    "id": "terms-conditions",
    "label": "Terms &amp; Conditions",
    "type": "relative",
    "url": "/page",
    "target": ""
  },
  {
    "id": "legal-and-privacy",
    "label": "Legal &amp; Privacy",
    "type": "external",
    "url": "https://www.standard.com/legal-privacy",
    "target": "_blank"
  },
  {
    "id": "contact-us",
    "label": "Contact Us",
    "type": "dialog",
    "url": "[[uri]]/page",
    "target": ""
  }
]
